         run       event       nTopo   nIdTracks  nTauTracks       nTaus      nMuons       nElec   nTrueElec   nFakeElec       nPhot   nTruePhot   nFakePhot
      242000     3120001         224           9           2           1           1           0           0           0           0           0           0
      242000     3120002         170           7           0           0           1           0           0           0           0           0           0
      242000     3120003         347          36           7           3           2           1           0           1           4           0           4
      242000     3120004         178          13           4           1           0           0           0           0           0           0           0
      242000     3120005         394          31           4           2           3           3           1           2           2           0           2
