{
    "TrkAnaTrig1" : {
        "enabled" : true,
        "TestType"  : "Trigger",
        "RefType"   : "Truth", 
        "TrigTrkKey"    : "HLT_IDTrack_Electron_IDTrig",
        "ChainNames"    : [ "HLT_e26_idperf_loose_L1EM22VHI", 
                            "HLT_e5_idperf_tight_L1EM3" ],
        "MatchingType"  : "TruthMatch" 
    },
    "TrkAnaTrig1Purity" : {
        "enabled" : true,
        "TestType"  : "Truth",
        "RefType"   : "Trigger", 
        "TrigTrkKey"    : "HLT_IDTrack_Electron_IDTrig",
        "ChainNames"    : [ "HLT_e26_idperf_loose_L1EM22VHI", 
                            "HLT_e5_idperf_tight_L1EM3" ],
        "MatchingType"  : "TruthMatch" 
    },
    "TrkAnaTrig2" : {
        "enabled" : true,
        "TestType"  : "Trigger",
        "RefType"   : "Offline", 
        "TrigTrkKey"    : "HLT_IDTrack_Electron_IDTrig",
        "ChainNames"    : [ "HLT_e.*_idperf_.*" ],
        "MatchingType"    : "DeltaRMatch",
        "dRmax"           : 0.05,
        "pTResMax"        : -9.9,
        "doEfficiencies" : false
    },
    "TrkAnaTrigEle" : {
        "enabled" : true,
        "TestType"  : "Trigger",
        "RefType"   : "Offline", 
        "TrigTrkKey"    : "HLT_IDTrack_Electron_IDTrig",
        "ChainNames"    : [ "HLT_e.*_idperf_.*" ],
        "MatchingType"    : "DeltaRMatch",
        "dRmax"           : 0.05,
        "pTResMax"        : -9.9,
        "SelectOfflineObject" : "Electron", 
        "ObjectQuality"       : "Tight",
        "doOfflineElectrons" : true
    },
    "TrkAnaOffl1" : {
        "enabled" : true,
        "TestType"  : "Offline",
        "RefType"   : "Truth", 
        "MatchingType"  : "TruthMatch" 
    }
}
