/* emacs: this is -*- c++ -*- */
testChains = {
    //  "Offline",
    //  "Muons",
    //  "Electrons",
    //  "Truth",

#if !defined VTXANALYSIS && !defined LRT

    "HLT_mu6_idperf_L1MU5VF:HLT_IDTrack_Muon_FTF:HLT_Roi_L2SAMuon",
    "HLT_mu6_idperf_L1MU5VF:HLT_IDTrack_Muon_IDTrig:HLT_Roi_L2SAMuon",
    "HLT_mu6_ivarmedium_L1MU5VF:HLT_IDTrack_MuonIso_FTF:HLT_Roi_MuonIso",
    "HLT_mu6_ivarmedium_L1MU5VF:HLT_IDTrack_MuonIso_IDTrig:HLT_Roi_MuonIso",

    "HLT_mu24_idperf_L1MU14FCH:HLT_IDTrack_Muon_FTF:HLT_Roi_L2SAMuon",
    "HLT_mu24_idperf_L1MU14FCH:HLT_IDTrack_Muon_IDTrig:HLT_Roi_L2SAMuon",
    "HLT_mu26_ivarmedium_L1MU14FCH:HLT_IDTrack_MuonIso_FTF:HLT_Roi_MuonIso",
    "HLT_mu26_ivarmedium_L1MU14FCH:HLT_IDTrack_MuonIso_IDTrig:HLT_Roi_MuonIso",
    "HLT_mu28_ivarmedium_L1MU14FCH:HLT_IDTrack_MuonIso_FTF:HLT_Roi_MuonIso",
    "HLT_mu28_ivarmedium_L1MU14FCH:HLT_IDTrack_MuonIso_IDTrig:HLT_Roi_MuonIso",
    "HLT_mu26_ivarperf_L1MU14FCH:HLT_IDTrack_MuonIso_FTF:HLT_Roi_MuonIso",
    "HLT_mu26_ivarperf_L1MU14FCH:HLT_IDTrack_MuonIso_IDTrig:HLT_Roi_MuonIso",

    "HLT_mu6_idperf_L1MU5VF:HLT_IDTrack_Muon_IDTrig:HLT_Roi_L2SAMuon",

    "HLT_mu4_cosmic_L1MU3V:HLT_IDTrack_Cosmic_FTF",
    "HLT_mu4_cosmic_L1MU3V:HLT_IDTrack_Cosmic_IDTrig",
    "HLT_mu4_cosmic_L1MU3V:HLT_IDTrack_Cosmic_EFID",

    "HLT_mu4_cosmic_L1MU3V_EMPTY:HLT_IDTrack_Cosmic_IDTrig",

    "HLT_mu14_mu14_idperf_50invmAB130_L12MU8F:key=HLT_IDTrack_Muon_FTF:roi=HLT_Roi_L2SAMuon:te=1",
    "HLT_mu14_mu14_idperf_50invmAB130_L12MU8F:key=HLT_IDTrack_Muon_IDTrig:roi=HLT_Roi_L2SAMuon:te=1",
    "HLT_mu14_mu14_idperf_50invmAB130_L12MU8F:key=HLT_IDTrack_Muon_FTF:roi=HLT_Roi_L2SAMuon:extra=mu_tag:te=0",
    "HLT_mu14_mu14_idperf_50invmAB130_L12MU8F:key=HLT_IDTrack_Muon_FTF:roi=HLT_Roi_L2SAMuon:extra=mu_probe:te=1",
    "HLT_mu14_mu14_idperf_50invmAB130_L12MU8F:key=HLT_IDTrack_Muon_IDTrig:roi=HLT_Roi_L2SAMuon:extra=mu_tag:te=0",
    "HLT_mu14_mu14_idperf_50invmAB130_L12MU8F:key=HLT_IDTrack_Muon_IDTrig:roi=HLT_Roi_L2SAMuon:extra=mu_probe:te=1",

    "HLT_mu14_mu14_idtp_idZmumu_L12MU8F:key=HLT_IDTrack_Muon_IDTrig:roi=HLT_Roi_L2SAMuon:te=1",
    "HLT_mu14_mu14_idtp_idZmumu_L12MU8F:key=HLT_IDTrack_Muon_IDTrig:roi=HLT_Roi_L2SAMuon:te=1:extra=mu_probe",
    "HLT_mu14_mu14_idtp_idZmumu_L12MU8F:key=HLT_IDTrack_Muon_IDTrig:roi=HLT_Roi_L2SAMuon:te=0:extra=mu_tag",
    "HLT_mu14_mu14_idtp_idZmumu_L12MU8F:key=HLT_IDTrack_Muon_FTF:roi=HLT_Roi_L2SAMuon:te=1",
    "HLT_mu14_mu14_idtp_idZmumu_L12MU8F:key=HLT_IDTrack_Muon_FTF:roi=HLT_Roi_L2SAMuon:te=1:extra=mu_probe",
    "HLT_mu14_mu14_idtp_idZmumu_L12MU8F:key=HLT_IDTrack_Muon_FTF:roi=HLT_Roi_L2SAMuon:te=0:extra=mu_tag",

    // "HLT_e17_lhvloose_nod0_L1EM15VH:HLT_IDTrack_Electron_FTF:HLT_Roi_FastElectron",
    // "HLT_e17_lhvloose_nod0_L1EM15VH:HLT_IDTrack_Electron_IDTrig",

    /// new eFex chains ...
    "HLT_e26_idperf_loose_L1eEM26M:HLT_IDTrack_Electron_FTF:HLT_Roi_FastElectron",
    "HLT_e26_idperf_loose_L1eEM26M:HLT_IDTrack_Electron_IDTrig",
    "HLT_e26_idperf_loose_L1eEM26M:HLT_IDTrack_Electron_GSF",

    /// old chains ...
    "HLT_e26_lhtight_gsf_ivarloose_L1EM22VHI:HLT_IDTrack_Electron_GSF",
    "HLT_e26_idperf_gsf_tight_L1EM22VHI:HLT_IDTrack_Electron_GSF",
    
    "HLT_e26_idperf_loose_L1EM22VHI:HLT_IDTrack_Electron_FTF:HLT_Roi_FastElectron",
    "HLT_e26_idperf_loose_L1EM22VHI:HLT_IDTrack_Electron_IDTrig",
    "HLT_e28_idperf_loose_L1EM22VHI:HLT_IDTrack_Electron_FTF:HLT_Roi_FastElectron",
    "HLT_e28_idperf_loose_L1EM22VHI:HLT_IDTrack_Electron_IDTrig",
    "HLT_e5_idperf_loose_L1EM3:HLT_IDTrack_Electron_FTF:HLT_Roi_FastElectron",
    "HLT_e5_idperf_loose_L1EM3:HLT_IDTrack_Electron_IDTrig",
    "HLT_e5_idperf_tight_L1EM3:HLT_IDTrack_Electron_FTF:HLT_Roi_FastElectron",
    "HLT_e5_idperf_tight_L1EM3:HLT_IDTrack_Electron_IDTrig",

    "HLT_e26_lhtight_e14_idperf_tight_nogsf_probe_50invmAB130_L1EM22VHI:key=HLT_IDTrack_Electron_FTF:roi=HLT_Roi_FastElectron:te=1",
    "HLT_e26_lhtight_e14_idperf_tight_nogsf_probe_50invmAB130_L1EM22VHI:key=HLT_IDTrack_Electron_FTF:extra=el_tag:roi=HLT_Roi_FastElectron:te=0",
    "HLT_e26_lhtight_e14_idperf_tight_nogsf_probe_50invmAB130_L1EM22VHI:key=HLT_IDTrack_Electron_FTF:extra=el_probe:roi=HLT_Roi_FastElectron:te=1",

    "HLT_e26_lhtight_e14_idperf_tight_nogsf_probe_50invmAB130_L1EM22VHI:key=HLT_IDTrack_Electron_IDTrig:te=1",
    "HLT_e26_lhtight_e14_idperf_tight_nogsf_probe_50invmAB130_L1EM22VHI:key=HLT_IDTrack_Electron_IDTrig:extra=el_tag:te=0",
    "HLT_e26_lhtight_e14_idperf_tight_nogsf_probe_50invmAB130_L1EM22VHI:key=HLT_IDTrack_Electron_IDTrig:extra=el_probe:te=1",

    "HLT_e26_lhtight_e14_idperf_tight_probe_50invmAB130_L1EM22VHI:key=HLT_IDTrack_Electron_GSF:te=1",
    "HLT_e26_lhtight_e14_idperf_tight_probe_50invmAB130_L1EM22VHI:key=HLT_IDTrack_Electron_GSF:extra=el_tag:te=0",
    "HLT_e26_lhtight_e14_idperf_tight_probe_50invmAB130_L1EM22VHI:key=HLT_IDTrack_Electron_GSF:extra=el_probe:te=1",

    "HLT_tau25_idperf_tracktwo_L1TAU12IM:HLT_IDTrack_TauCore_FTF:HLT_Roi_TauCore",
    "HLT_tau25_idperf_tracktwo_L1TAU12IM:HLT_IDTrack_TauIso_FTF:HLT_Roi_TauIso",
    "HLT_tau25_idperf_tracktwo_L1TAU12IM:HLT_IDTrack_Tau_IDTrig:HLT_Roi_TauIso",
    "HLT_tau25_idperf_tracktwo_L1TAU12IM:HLT_IDTrack_Tau_IDTrig:HLT_Roi_TauIso:HLT_IDVertex_Tau:post:rvtx=HLT_IDVertex_Tau",
    "HLT_tau25_idperf_tracktwoMVA_L1TAU12IM:HLT_IDTrack_TauCore_FTF:HLT_Roi_TauCore",
    "HLT_tau25_idperf_tracktwoMVA_L1TAU12IM:HLT_IDTrack_TauIso_FTF:HLT_Roi_TauIso",
    "HLT_tau25_idperf_tracktwoMVA_L1TAU12IM:HLT_IDTrack_Tau_IDTrig:HLT_Roi_TauIso",
    "HLT_tau25_idperf_tracktwoMVA_L1TAU12IM:HLT_IDTrack_Tau_IDTrig:HLT_Roi_TauIso:HLT_IDVertex_Tau:post:rvtx=HLT_IDVertex_Tau",
    
    "HLT_tau25_idperf_tracktwoMVA_L1TAU12IM:HLT_IDTrack_TauCore_FTF:HLT_Roi_TauCore",
    "HLT_tau25_idperf_tracktwoMVA_L1TAU12IM:HLT_IDTrack_TauIso_FTF:HLT_Roi_TauIso",
    "HLT_tau25_idperf_tracktwoMVA_L1TAU12IM:HLT_IDTrack_Tau_IDTrig:HLT_Roi_TauIso",
    "HLT_tau25_idperf_tracktwoMVA_L1TAU12IM:HLT_IDTrack_Tau_IDTrig:HLT_Roi_TauIso:HLT_IDVertex_Tau:post:rvtx=HLT_IDVertex_Tau",

    "HLT_tau25_idperf_trackLRT_L1TAU12IM:HLT_IDTrack_TauLRT_FTF:HLT_Roi_TauLRT",
    "HLT_tau25_idperf_trackLRT_L1TAU12IM:HLT_IDTrack_TauLRT_IDTrig:HLT_Roi_TauLRT",
    
    "HLT_j45_0eta290_020jvt_boffperf_pf_ftf_L1J20:HLT_IDTrack_Bjet_FTF",
    "HLT_j45_0eta290_020jvt_boffperf_pf_ftf_L1J20:HLT_IDTrack_Bjet_IDTrig:HLT_Roi_Bjet:HLT_AntiKt4EMPFlowJets_subresjesgscIS_ftf_BTaggingSecVtx:post:rvtx=HLT_AntiKt4EMPFlowJets_subresjesgscIS_ftf_BTaggingSecVtx",

    "HLT_mb_sptrk_L1RD0_FILLED:HLT_IDTrack_MinBias_IDTrig",
    
    "HLT_2mu4_bBmumux_BsmumuPhi_L12MU3V:HLT_IDTrack_Bmumux_FTF",
    "HLT_2mu4_bBmumux_BsmumuPhi_L12MU3V:HLT_IDTrack_Bmumux_IDTrig",
    "HLT_mu11_mu6_bBmumux_Bidperf_L1MU8VF_2MU5VF:HLT_IDTrack_Bmumux_FTF",
    "HLT_mu11_mu6_bBmumux_Bidperf_L1MU8VF_2MU5VF:HLT_IDTrack_Bmumux_IDTrig",


#endif


#ifdef LRT
    "HLT_mu20_LRT_idperf_L1MU14FCH:HLT_IDTrack_MuonLRT_FTF:HLT_Roi_L2SAMuon_LRT",
    "HLT_mu20_LRT_idperf_L1MU14FCH:HLT_IDTrack_MuonLRT_IDTrig:HLT_Roi_L2SAMuon_LRT",
    "HLT_mu6_LRT_idperf_L1MU5VF:HLT_IDTrack_MuonLRT_IDTrig:HLT_Roi_L2SAMuon_LRT",
    "HLT_mu6_LRT_idperf_L1MU5VF:HLT_IDTrack_MuonLRT_FTF:HLT_Roi_L2SAMuon_LRT",

    // 2022 L1
    "HLT_e20_idperf_loose_lrtloose_L1EM15VH:HLT_IDTrack_ElecLRT_FTF:HLT_Roi_FastElectron_LRT",
    "HLT_e30_idperf_loose_lrtloose_L1EM22VHI:HLT_IDTrack_ElecLRT_FTF:HLT_Roi_FastElectron_LRT",
    "HLT_e20_idperf_loose_lrtloose_L1EM15VH:HLT_IDTrack_ElecLRT_IDTrig:HLT_Roi_FastElectron_LRT",
    "HLT_e30_idperf_loose_lrtloose_L1EM22VHI:HLT_IDTrack_ElecLRT_IDTrig:HLT_Roi_FastElectron_LRT",
    "HLT_e20_idperf_loose_lrtloose_L1EM15VH:HLT_IDTrack_Electron_LRTGSF:HLT_Roi_FastElectron_LRT",
    "HLT_e30_idperf_loose_lrtloose_L1EM22VHI:HLT_IDTrack_Electron_LRTGSF:HLT_Roi_FastElectron_LRT",

    "HLT_e26_lhtight_ivarloose_e5_idperf_loose_lrtloose_probe_L1EM22VHI:HLT_IDTrack_ElecLRT_FTF:HLT_Roi_FastElectron_LRT:1",
    "HLT_e26_lhtight_ivarloose_e5_idperf_loose_lrtloose_probe_L1EM22VHI:HLT_IDTrack_ElecLRT_IDTrig:HLT_Roi_FastElectron_LRT:1",
    "HLT_e26_lhtight_ivarloose_e5_idperf_loose_lrtloose_probe_L1EM22VHI:HLT_IDTrack_Electron_LRTGSF:HLT_Roi_FastElectron_LRT:1",

    "HLT_e5_idperf_loose_lrtloose_probe_g25_medium_L1EM20VH:HLT_IDTrack_ElecLRT_FTF:HLT_Roi_FastElectron_LRT:0",
    "HLT_e5_idperf_loose_lrtloose_probe_g25_medium_L1EM20VH:HLT_IDTrack_ElecLRT_IDTrig:HLT_Roi_FastElectron_LRT:0",
    "HLT_e5_idperf_loose_lrtloose_probe_g25_medium_L1EM20VH:HLT_IDTrack_Electron_LRTGSF:HLT_Roi_FastElectron_LRT:0",

    // 2023 L1
    "HLT_e20_idperf_loose_lrtloose_L1eEM18L:HLT_IDTrack_ElecLRT_FTF:HLT_Roi_FastElectron_LRT",
    "HLT_e30_idperf_loose_lrtloose_L1eEM26M:HLT_IDTrack_ElecLRT_FTF:HLT_Roi_FastElectron_LRT",
    "HLT_e20_idperf_loose_lrtloose_L1eEM18L:HLT_IDTrack_ElecLRT_IDTrig:HLT_Roi_FastElectron_LRT",
    "HLT_e30_idperf_loose_lrtloose_L1eEM26M:HLT_IDTrack_ElecLRT_IDTrig:HLT_Roi_FastElectron_LRT",
    "HLT_e20_idperf_loose_lrtloose_L1eEM18L:HLT_IDTrack_Electron_LRTGSF:HLT_Roi_FastElectron_LRT",
    "HLT_e30_idperf_loose_lrtloose_L1eEM26M:HLT_IDTrack_Electron_LRTGSF:HLT_Roi_FastElectron_LRT",

    "HLT_e26_lhtight_ivarloose_e5_idperf_loose_lrtloose_probe_L1eEM26M:HLT_IDTrack_ElecLRT_FTF:HLT_Roi_FastElectron_LRT:1",
    "HLT_e26_lhtight_ivarloose_e5_idperf_loose_lrtloose_probe_L1eEM26M:HLT_IDTrack_ElecLRT_IDTrig:HLT_Roi_FastElectron_LRT:1",
    "HLT_e26_lhtight_ivarloose_e5_idperf_loose_lrtloose_probe_L1eEM26M:HLT_IDTrack_Electron_LRTGSF:HLT_Roi_FastElectron_LRT:1",

    "HLT_e5_idperf_loose_lrtloose_probe_g25_medium_L1eEM24L:HLT_IDTrack_ElecLRT_FTF:HLT_Roi_FastElectron_LRT:0",
    "HLT_e5_idperf_loose_lrtloose_probe_g25_medium_L1eEM24L:HLT_IDTrack_ElecLRT_IDTrig:HLT_Roi_FastElectron_LRT:0",
    "HLT_e5_idperf_loose_lrtloose_probe_g25_medium_L1eEM24L:HLT_IDTrack_Electron_LRTGSF:HLT_Roi_FastElectron_LRT:0",


    "HLT_tau25_idperf_tracktwoLLP_L1TAU12IM:HLT_IDTrack_TauCore_FTF:HLT_Roi_TauCore",
    "HLT_tau25_idperf_tracktwoLLP_L1TAU12IM:HLT_IDTrack_TauIso_FTF:HLT_Roi_TauIso",
    "HLT_tau25_idperf_tracktwoLLP_L1TAU12IM:HLT_IDTrack_Tau_IDTrig:HLT_Roi_TauIso",
    "HLT_tau25_idperf_tracktwoLLP_L1TAU12IM:HLT_IDTrack_Tau_IDTrig:HLT_Roi_TauIso:HLT_IDVertex_Tau:post:rvtx=HLT_IDVertex_Tau",

    "HLT_tau25_idperf_trackLRT_L1TAU12IM:HLT_IDTrack_TauLRT_FTF:HLT_Roi_TauLRT",
    "HLT_tau25_idperf_trackLRT_L1TAU12IM:HLT_IDTrack_TauLRT_IDTrig:HLT_Roi_TauLRT",
    "HLT_tau80_idperf_trackLRT_L1TAU60:HLT_IDTrack_TauLRT_FTF:HLT_Roi_TauLRT",
    "HLT_tau80_idperf_trackLRT_L1TAU60:HLT_IDTrack_TauLRT_IDTrig:HLT_Roi_TauLRT",
    "HLT_tau160_idperf_trackLRT_L1TAU100:HLT_IDTrack_TauLRT_FTF:HLT_Roi_TauLRT",
    "HLT_tau160_idperf_trackLRT_L1TAU100:HLT_IDTrack_TauLRT_IDTrig:HLT_Roi_TauLRT",

    "HLT_j180_2dispjet50_3d2p_L1jJ160:HLT_IDTrack_DJLRT_FTF:HLT_Roi_DJ",
    "HLT_j180_dispjet50_3d2p_dispjet50_1p_L1jJ160:HLT_IDTrack_DJLRT_FTF:HLT_Roi_DJ",
    "HLT_j180_dispjet90_x3d1p_L1jJ160:HLT_IDTrack_DJLRT_FTF:HLT_Roi_DJ",
    "HLT_j180_dispjet100_x3d1p_L1jJ160:HLT_IDTrack_DJLRT_FTF:HLT_Roi_DJ",


    "HLT_fslrt0_L1J100:HLT_IDTrack_FSLRT_FTF;DTE",
    "HLT_fslrt0_L1J100:HLT_IDTrack_FS_FTF;DTE",
    "HLT_fslrt0_L1J100:HLT_IDTrack_FSLRT_IDTrig;DTE"
#else
    "HLT_j45_subjesgscIS_ftf_boffperf_split_L1J20:HLT_IDTrack_FS_FTF:HLT_FSRoI:HLT_IDVertex_FS:post:rvtx=HLT_IDVertex_FS",
    "HLT_j45_subjesgscIS_ftf_boffperf_split_L1J20:HLT_IDTrack_FS_FTF:HLT_FSRoI:HLT_IDVertex_FSJet:post:rvtx=HLT_IDVertex_FSJet",
    
    "HLT_j45_ftf_L1J15:HLT_IDTrack_FS_FTF:HLT_FSRoI:HLT_IDVertex_FS:post:rvtx=HLT_IDVertex_FS",
    "HLT_j45_ftf_L1J15:HLT_IDTrack_FS_FTF:HLT_FSRoI:HLT_IDVertex_FSJet:post:rvtx=HLT_IDVertex_FSJet",
    
    "HLT_j45_ftf_subjesgscIS_boffperf_split_L1J20:HLT_IDTrack_FS_FTF:HLT_FSRoI:HLT_IDVertex_FS:post:rvtx=HLT_IDVertex_FS",
    "HLT_j45_ftf_subjesgscIS_boffperf_split_L1J20:HLT_IDTrack_FS_FTF:HLT_FSRoI:HLT_IDVertex_FSJet:post:rvtx=HLT_IDVertex_FSJet",
    
    "HLT_j45_pf_ftf_preselj20_L1J15:HLT_IDTrack_FS_FTF:HLT_FSRoI:HLT_IDVertex_FS:post:rvtx=HLT_IDVertex_FS",
    "HLT_j45_pf_ftf_preselj20_L1J15:HLT_IDTrack_FS_FTF:HLT_FSRoI:HLT_IDVertex_FSJet:post:rvtx=HLT_IDVertex_FSJet",

    "HLT_j80_pf_ftf_preselj20b95_L1J20:HLT_IDTrack_JetSuper_FTF:HLT_Roi_JetSuper",
    "HLT_j45_pf_ftf_preselj20_L1jJ40:HLT_IDTrack_JetSuper_FTF:HLT_Roi_JetSuper",
    "HLT_j20_roiftf_preselj20_L1RD0_FILLED:HLT_IDTrack_JetSuper_FTF:HLT_Roi_JetSuper"    
#endif





};
